\relax 
\providecommand\hyper@newdestlabel[2]{}
\providecommand\babel@aux[2]{}
\@nameuse{bbl@beforestart}
\providecommand\HyperFirstAtBeginDocument{\AtBeginDocument}
\HyperFirstAtBeginDocument{\ifx\hyper@anchor\@undefined
\global\let\oldcontentsline\contentsline
\gdef\contentsline#1#2#3#4{\oldcontentsline{#1}{#2}{#3}}
\global\let\oldnewlabel\newlabel
\gdef\newlabel#1#2{\newlabelxx{#1}#2}
\gdef\newlabelxx#1#2#3#4#5#6{\oldnewlabel{#1}{{#2}{#3}}}
\AtEndDocument{\ifx\hyper@anchor\@undefined
\let\contentsline\oldcontentsline
\let\newlabel\oldnewlabel
\fi}
\fi}
\global\let\hyper@last\relax 
\gdef\HyperFirstAtBeginDocument#1{#1}
\providecommand\HyField@AuxAddToFields[1]{}
\providecommand\HyField@AuxAddToCoFields[2]{}
\babel@aux{english}{}
\@writefile{toc}{\contentsline {section}{\numberline {1}Cvičení 1: Vektory a matice}{2}{section.1}\protected@file@percent }
\@writefile{toc}{\contentsline {section}{\numberline {2}Cviceni 2}{3}{section.2}\protected@file@percent }
\@writefile{toc}{\contentsline {section}{\numberline {3}Cviceni 3}{4}{section.3}\protected@file@percent }
\@writefile{toc}{\contentsline {section}{\numberline {4}Cviceni 4}{5}{section.4}\protected@file@percent }
\@writefile{toc}{\contentsline {section}{\numberline {5}Cviceni 5}{6}{section.5}\protected@file@percent }
\@writefile{toc}{\contentsline {section}{\numberline {6}Cviceni 6}{7}{section.6}\protected@file@percent }
\@writefile{toc}{\contentsline {section}{\numberline {7}Cviceni 7}{8}{section.7}\protected@file@percent }
\@writefile{toc}{\contentsline {section}{\numberline {8}Cvičení 8: Lokální extrémy funkcí}{9}{section.8}\protected@file@percent }
\@writefile{toc}{\contentsline {section}{\numberline {9}Cvičení 9: Implicitně definované funkce}{11}{section.9}\protected@file@percent }
\@writefile{toc}{\contentsline {section}{\numberline {10}Cvičení 10: Parametrické křivky a křivkový integrál}{12}{section.10}\protected@file@percent }
\@writefile{toc}{\contentsline {section}{\numberline {11}Cviceni 11}{14}{section.11}\protected@file@percent }
\@writefile{toc}{\contentsline {section}{\numberline {12}Cviceni 12}{15}{section.12}\protected@file@percent }
\@writefile{toc}{\contentsline {section}{\numberline {13}Cviceni 13}{16}{section.13}\protected@file@percent }
\gdef \@abspage@last{16}
