\BOOKMARK [1][-]{section.1}{\376\377\000C\000v\000i\001\015\000e\000n\000\355\000\040\0001\000:\000\040\000V\000e\000k\000t\000o\000r\000y\000\040\000a\000\040\000m\000a\000t\000i\000c\000e}{}% 1
\BOOKMARK [1][-]{section.2}{\376\377\000C\000v\000i\000c\000e\000n\000i\000\040\0002}{}% 2
\BOOKMARK [1][-]{section.3}{\376\377\000C\000v\000i\000c\000e\000n\000i\000\040\0003}{}% 3
\BOOKMARK [1][-]{section.4}{\376\377\000C\000v\000i\000c\000e\000n\000i\000\040\0004}{}% 4
\BOOKMARK [1][-]{section.5}{\376\377\000C\000v\000i\000c\000e\000n\000i\000\040\0005}{}% 5
\BOOKMARK [1][-]{section.6}{\376\377\000C\000v\000i\000c\000e\000n\000i\000\040\0006}{}% 6
\BOOKMARK [1][-]{section.7}{\376\377\000C\000v\000i\000c\000e\000n\000i\000\040\0007}{}% 7
\BOOKMARK [1][-]{section.8}{\376\377\000C\000v\000i\001\015\000e\000n\000\355\000\040\0008\000:\000\040\000L\000o\000k\000\341\000l\000n\000\355\000\040\000e\000x\000t\000r\000\351\000m\000y\000\040\000f\000u\000n\000k\000c\000\355}{}% 8
\BOOKMARK [1][-]{section.9}{\376\377\000C\000v\000i\001\015\000e\000n\000\355\000\040\0009\000:\000\040\000I\000m\000p\000l\000i\000c\000i\000t\000n\001\033\000\040\000d\000e\000f\000i\000n\000o\000v\000a\000n\000\351\000\040\000f\000u\000n\000k\000c\000e}{}% 9
\BOOKMARK [1][-]{section.10}{\376\377\000C\000v\000i\001\015\000e\000n\000\355\000\040\0001\0000\000:\000\040\000P\000a\000r\000a\000m\000e\000t\000r\000i\000c\000k\000\351\000\040\000k\001\131\000i\000v\000k\000y\000\040\000a\000\040\000k\001\131\000i\000v\000k\000o\000v\000\375\000\040\000i\000n\000t\000e\000g\000r\000\341\000l}{}% 10
\BOOKMARK [1][-]{section.11}{\376\377\000C\000v\000i\000c\000e\000n\000i\000\040\0001\0001}{}% 11
\BOOKMARK [1][-]{section.12}{\376\377\000C\000v\000i\000c\000e\000n\000i\000\040\0001\0002}{}% 12
\BOOKMARK [1][-]{section.13}{\376\377\000C\000v\000i\000c\000e\000n\000i\000\040\0001\0003}{}% 13
